<svg width="33" height="36" viewBox="0 0 33 36" fill="none" xmlns="http://www.w3.org/2000/svg">
<rect x="1" y="1" width="30.7273" height="34" rx="1" stroke="#009CDC" stroke-width="2"/>
<path d="M7 9H25.5" stroke="#009CDC" stroke-width="2"/>
<path d="M7 15H25.5" stroke="#009CDC" stroke-width="2"/>
<path d="M7 21H25.5" stroke="#009CDC" stroke-width="2"/>
<path d="M7 27H25.5" stroke="#009CDC" stroke-width="2"/>
</svg>
