<svg width="22" height="22" viewBox="0 0 22 22" fill="none" xmlns="http://www.w3.org/2000/svg">
<circle cx="11" cy="11" r="11" fill="#6CEB8F"/>
<path d="M6 10.3077L9.80952 14L16 8" stroke="#1E9370" stroke-width="2"/>
</svg>
