<svg width="22" height="22" viewBox="0 0 22 22" fill="none" xmlns="http://www.w3.org/2000/svg">
<path fill-rule="evenodd" clip-rule="evenodd" d="M11 1.5C5.7533 1.5 1.5 5.7533 1.5 11C1.5 16.2467 5.7533 20.5 11 20.5C16.2467 20.5 20.5 16.2467 20.5 11C20.5 5.7533 16.2467 1.5 11 1.5ZM0.5 11C0.5 5.20101 5.20101 0.5 11 0.5C16.799 0.5 21.5 5.20101 21.5 11C21.5 16.799 16.799 21.5 11 21.5C5.20101 21.5 0.5 16.799 0.5 11ZM11.9571 11.25L14.8536 14.1464L14.1464 14.8536L11.25 11.9571L8.35355 14.8536L7.64645 14.1464L10.5429 11.25L7.64645 8.35355L8.35355 7.64645L11.25 10.5429L14.1464 7.64645L14.8536 8.35355L11.9571 11.25Z" fill="#EB5757"/>
</svg>
