<svg width="27" height="27" viewBox="0 0 27 27" fill="none" xmlns="http://www.w3.org/2000/svg">
<path d="M1.66479 14.4434L25.8386 14.5755" stroke="#002A5C" stroke-width="2" stroke-linecap="round"/>
<path d="M13.6819 1.71094L13.814 25.8847" stroke="#002A5C" stroke-width="2" stroke-linecap="round"/>
</svg>
