<svg width="36" height="36" viewBox="0 0 36 36" fill="none" xmlns="http://www.w3.org/2000/svg">
<circle cx="18" cy="18" r="18" fill="white"/>
<rect x="11" y="10" width="13" height="16" rx="1" stroke="#009CDC" stroke-width="2"/>
<path d="M14 14L21 14" stroke="#009CDC" stroke-width="2"/>
<path d="M14 18L21 18" stroke="#009CDC" stroke-width="2"/>
<path d="M14 22L21 22" stroke="#009CDC" stroke-width="2"/>
</svg>
