<svg width="31" height="31" viewBox="0 0 31 31" fill="none" xmlns="http://www.w3.org/2000/svg">
<g clip-path="url(#clip0)">
<path d="M29.8838 26.1481L26.3287 18.5244C24.3657 21.3827 21.3008 23.4179 17.7529 24.0351L20.7289 30.4168C21.1094 31.2334 22.2869 31.1789 22.5933 30.3356L24.1187 26.1455L24.4331 25.9989L28.6232 27.5243C29.464 27.8328 30.2638 26.9614 29.8838 26.1481Z" fill="white"/>
<path d="M15.5 0C9.3735 0 4.38867 4.98452 4.38867 11.1113C4.38867 17.2381 9.37356 22.2226 15.5 22.2226C21.6265 22.2226 26.6113 17.2381 26.6113 11.1113C26.6113 4.98452 21.6266 0 15.5 0ZM20.9065 10.2949L18.9362 12.2156L19.4018 14.9283C19.5442 15.7565 18.6715 16.3788 17.9359 15.993L15.5001 14.7126L13.0642 15.993C12.3244 16.3814 11.4567 15.7519 11.5983 14.9283L12.0639 12.2155L10.0936 10.2948C9.49483 9.71105 9.82717 8.69199 10.6534 8.57192L13.3766 8.17637L14.5946 5.7089C14.9631 4.95958 16.0367 4.95891 16.4057 5.7089L17.6237 8.17637L20.3469 8.57192C21.173 8.69193 21.5053 9.71105 20.9065 10.2949Z" fill="white"/>
<path d="M4.67105 18.5244L1.11598 26.1481C0.73423 26.9653 1.5412 27.8319 2.37663 27.5241L6.56671 25.9987L6.88107 26.1453L8.40643 30.3355C8.71225 31.177 9.88959 31.235 10.2708 30.4167L13.2468 24.035C9.69898 23.4179 6.6341 21.3827 4.67105 18.5244Z" fill="white"/>
</g>
<defs>
<clipPath id="clip0">
<rect width="31" height="31" fill="white"/>
</clipPath>
</defs>
</svg>
