[
  {
    "title": "Программа",
    "href": "#",
    "number": "",
    "path": "index.html",
    "subitems": false
  },
  {
    "title": "Прогресс",
    "href": "#",
    "number": "",
    "path": "progress.html",
    "subitems": false
  },
  {
    "title": "Календарь",
    "href": "#",
    "number": "",
    "path": "calendar.html",
    "subitems": false
  },
  {
    "title": "Слушатели",
    "href": "#",
    "number": "",
    "path": "users.html",
    "subitems": false
  },
  {
    "title": "Объявления",
    "href": "#",
    "number": "1",
    "path": "advert.html",
    "subitems": false
  },
  {
    "title": "Форум",
    "href": "#",
    "number": "1",
    "path": "forum.html",
    "subitems": false
  },
  {
    "title": "Поддержка",
    "href": "#",
    "number": "",
    "path": "support.html",
    "subitems": false
  },
  {
    "title": "Рекомендации",
    "href": "#",
    "number": "",
    "path": "recommendations.html",
    "subitems": false
  },
  {
    "title": "Админ обучения",
    "href": "#",
    "number": "",
    "path": "questionary.html",
    "subitems": [
      {
        "title": "Админ обучения",
        "href": "#"
      },
      {
        "title": "Руководство ППК",
        "href": "#"
      },
      {
        "title": "Печать удостоверений",
        "href": "#"
      }
    ]
  }
]
